<svg width="56" height="56" viewBox="0 0 56 56" fill="none" xmlns="http://www.w3.org/2000/svg">
  <rect width="56" height="56" fill="#FEE9EF"/>
  <path d="M40.6251 42.1672C37.3879 42.1672 34.1641 41.4466 30.9537 40.0054C27.7432 38.5641 24.8078 36.5134 22.1476 33.8532C19.498 31.1929 17.45 28.2565 16.0034 25.0439C14.5568 21.8313 13.8335 18.6085 13.8335 15.3757V13.834H22.4488L23.9264 21.4237L19.3046 25.9109C19.9905 27.1117 20.7245 28.2276 21.5065 29.2586C22.2886 30.2896 23.1155 31.2325 23.9873 32.0872C24.8356 32.9568 25.779 33.7784 26.8175 34.5519C27.8559 35.3254 29.0108 36.069 30.2822 36.7827L34.8751 32.1096L42.1667 33.5936V42.1672H40.6251Z" fill="#F34A7C"/>
</svg>
