<svg width="48" height="48" viewBox="0 0 48 48" fill="none" xmlns="http://www.w3.org/2000/svg">
<path d="M41.4929 20.9112L41.4836 20.8737L36.2242 7.50962C35.9898 6.75493 35.2914 6.23462 34.4992 6.23462H13.1804C12.3836 6.23462 11.6757 6.76431 11.4507 7.52837L6.53355 20.7565L6.51949 20.7893L6.51012 20.8268C6.44918 21.0565 6.43043 21.2909 6.46324 21.5206C6.45855 21.5956 6.45387 21.6706 6.45387 21.7456V38.8971C6.45511 39.6526 6.75577 40.3768 7.28998 40.911C7.82419 41.4452 8.54838 41.7459 9.30387 41.7471H38.7039C40.2742 41.7471 41.5539 40.4674 41.5586 38.8971V21.7456C41.5586 21.6846 41.5586 21.6237 41.5539 21.5721C41.5726 21.3424 41.5539 21.1221 41.4929 20.9112ZM27.6273 18.8956L27.6132 19.6315C27.5757 21.7362 26.1226 23.1518 23.9992 23.1518C22.9632 23.1518 22.0726 22.819 21.4304 22.1862C20.7882 21.5534 20.4367 20.6721 20.4179 19.6315L20.4039 18.8956H10.757L14.4836 9.83462H33.1961L37.0257 18.8956H27.6273ZM10.0492 22.4956H17.4226C18.5617 25.1721 20.9851 26.7518 24.0039 26.7518C25.5836 26.7518 27.0507 26.3112 28.2367 25.4768C29.2773 24.7456 30.0882 23.7237 30.6132 22.4956H37.9492V38.1471H10.0492V22.4956Z" fill="#121212"/>
</svg>
