<svg width="32" height="32" viewBox="0 0 32 32" fill="none" xmlns="http://www.w3.org/2000/svg">
  <rect width="32" height="32" rx="2" fill="black" fill-opacity="0.85"/>
  <path d="M8.99997 23H23V13.7192L18.2808 8.99998H8.99997V23ZM7.5 24.5V7.5H18.8942L24.5 13.1058V24.5H7.5ZM11.25 20.5H20.75V19H11.25V20.5ZM11.25 16.75H20.75V15.25H11.25V16.75ZM11.25 13H17.6153V11.5H11.25V13Z" fill="white"/>
</svg>
