<svg width="14" height="14" viewBox="0 0 14 14" fill="none" xmlns="http://www.w3.org/2000/svg">
<path d="M7.00195 0.00305176C3.13633 0.00305176 0.00195312 3.13743 0.00195312 7.00305C0.00195312 10.8687 3.13633 14.0031 7.00195 14.0031C10.8676 14.0031 14.002 10.8687 14.002 7.00305C14.002 3.13743 10.8676 0.00305176 7.00195 0.00305176ZM7.00195 12.8156C3.79258 12.8156 1.18945 10.2124 1.18945 7.00305C1.18945 3.79368 3.79258 1.19055 7.00195 1.19055C10.2113 1.19055 12.8145 3.79368 12.8145 7.00305C12.8145 10.2124 10.2113 12.8156 7.00195 12.8156Z" fill="black" fill-opacity="0.25"/>
<path d="M9.73176 8.97971L7.50364 7.36877V3.50159C7.50364 3.43284 7.44739 3.37659 7.37864 3.37659H6.62708C6.55833 3.37659 6.50208 3.43284 6.50208 3.50159V7.80471C6.50208 7.84534 6.52083 7.88284 6.55364 7.90627L9.13801 9.79065C9.19426 9.83127 9.27239 9.81878 9.31301 9.76409L9.75989 9.15471C9.80051 9.0969 9.78801 9.01877 9.73176 8.97971Z" fill="black" fill-opacity="0.25"/>
</svg>
