<svg width="24" height="24" viewBox="0 0 24 24" fill="white" xmlns="http://www.w3.org/2000/svg">
  <path d="M13.9989 11.2308C14.7624 11.2308 15.4118 10.9635 15.9471 10.429C16.4823 9.89452 16.75 9.24548 16.75 8.4819C16.75 7.71833 16.4827 7.06893 15.9482 6.53368C15.4137 5.99843 14.7647 5.7308 14.0011 5.7308C13.2375 5.7308 12.5881 5.99805 12.0529 6.53255C11.5176 7.06705 11.25 7.71608 11.25 8.47965C11.25 9.24322 11.5173 9.89263 12.0518 10.4279C12.5863 10.9631 13.2353 11.2308 13.9989 11.2308ZM6.5 17.5V2.5H21.5V17.5H6.5ZM2.5 21.5V6.5H3.99998V20H17.5V21.5H2.5ZM8.28845 16H19.7115C19.0115 15.1333 18.1634 14.4615 17.1671 13.9846C16.1708 13.5077 15.1157 13.2692 14.0017 13.2692C12.8877 13.2692 11.832 13.5077 10.8346 13.9846C9.83717 14.4615 8.98845 15.1333 8.28845 16Z"/>
</svg>
