<svg width="24" height="24" viewBox="0 0 24 24" fill="white" xmlns="http://www.w3.org/2000/svg">
  <path d="M3.5 11V3.5H11V11H3.5ZM3.5 20.5V13H11V20.5H3.5ZM13 11V3.5H20.5V11H13ZM13 20.5V13H20.5V20.5H13Z"/>
</svg>
