<svg width="12" height="12" viewBox="0 0 12 12" fill="none" xmlns="http://www.w3.org/2000/svg">
  <path d="M7.45424 9.74998C6.40679 9.74998 5.51958 9.38649 4.79262 8.65953C4.06566 7.93257 3.70218 7.04536 3.70218 5.99791C3.70218 4.95828 4.06566 4.07372 4.79262 3.34423C5.51958 2.61474 6.40679 2.25 7.45424 2.25C8.49387 2.25 9.37843 2.61474 10.1079 3.34423C10.8374 4.07372 11.2021 4.95828 11.2021 5.99791C11.2021 7.04536 10.8374 7.93257 10.1079 8.65953C9.37843 9.38649 8.49387 9.74998 7.45424 9.74998ZM7.45217 8.99999C8.2855 8.99999 8.99383 8.70832 9.57717 8.12499C10.1605 7.54165 10.4522 6.83332 10.4522 5.99999C10.4522 5.16665 10.1605 4.45832 9.57717 3.87499C8.99383 3.29165 8.2855 2.99999 7.45217 2.99999C6.61883 2.99999 5.9105 3.29165 5.32717 3.87499C4.74383 4.45832 4.45217 5.16665 4.45217 5.99999C4.45217 6.83332 4.74383 7.54165 5.32717 8.12499C5.9105 8.70832 6.61883 8.99999 7.45217 8.99999ZM8.63774 7.73268L9.17234 7.19806L7.82715 5.85288V4.07691H7.07717V6.1596L8.63774 7.73268ZM1.29834 4.37498V3.625H3.20218V4.37498H1.29834ZM0.79834 6.37498V5.625H3.20218V6.37498H0.79834ZM1.29834 8.37498V7.625H3.20218V8.37498H1.29834Z" fill="#8C8C8C"/>
</svg>
