<svg width="24" height="24" viewBox="0 0 24 24" fill="#FFD602" xmlns="http://www.w3.org/2000/svg">
  <circle cx="12" cy="12" r="12" fill="#121212"/>
  <path d="M14.1493 14.338L12.674 17.438C12.6461 17.4966 12.6043 17.5475 12.5523 17.5864C12.5003 17.6253 12.4396 17.6509 12.3755 17.6611C12.3114 17.6712 12.2457 17.6656 12.1843 17.6448C12.1228 17.6239 12.0673 17.5884 12.0226 17.5413L9.6613 15.0486C9.59804 14.982 9.51376 14.9391 9.42263 14.9273L6.01863 14.482C5.95415 14.4736 5.89268 14.4497 5.83953 14.4123C5.78638 14.3748 5.74316 14.325 5.71362 14.2671C5.68407 14.2091 5.66908 14.1449 5.66996 14.0799C5.67083 14.0149 5.68754 13.9511 5.71863 13.894L7.35997 10.8793C7.40398 10.7985 7.41881 10.7051 7.40197 10.6146L6.7733 7.2393C6.76136 7.17541 6.76517 7.10958 6.7844 7.04749C6.80363 6.98541 6.83769 6.92894 6.88365 6.88299C6.92961 6.83703 6.98607 6.80296 7.04816 6.78373C7.11024 6.76451 7.17608 6.7607 7.23997 6.77263L10.6146 7.4013C10.7051 7.41815 10.7985 7.40331 10.8793 7.3593L13.8946 5.71863C13.9517 5.68754 14.0155 5.67083 14.0806 5.66996C14.1456 5.66908 14.2098 5.68407 14.2677 5.71362C14.3256 5.74316 14.3755 5.78638 14.4129 5.83953C14.4504 5.89268 14.4743 5.95415 14.4826 6.01863L14.928 9.42197C14.9398 9.5131 14.9826 9.59738 15.0493 9.66063L17.542 12.022C17.5891 12.0666 17.6246 12.1221 17.6454 12.1836C17.6663 12.2451 17.6719 12.3107 17.6617 12.3748C17.6516 12.4389 17.6259 12.4996 17.5871 12.5516C17.5482 12.6036 17.4972 12.6454 17.4386 12.6733L14.3386 14.1486C14.2556 14.1881 14.1888 14.255 14.1493 14.338ZM14.6806 15.6226L15.6233 14.68L18.4513 17.508L17.5086 18.4506L14.6806 15.6226Z"/>
</svg>
